<svg xmlns="http://www.w3.org/2000/svg" width="83.221" height="83.321" viewBox="0 0 83.221 83.321">
  <g id="noun_closed_2640959" transform="translate(-15.42 -26.012)">
    <g id="noun_closed_3167597" transform="translate(14.884 -254.519)">
      <path id="Path_6887" data-name="Path 6887" d="M42.137,281.031a5.837,5.837,0,0,0-4.325,9.8L19.378,316.364H2.51a1.468,1.468,0,0,0-1.474,1.477v44.048a1.469,1.469,0,0,0,1.474,1.462H81.794a1.469,1.469,0,0,0,1.463-1.463V317.841a1.468,1.468,0,0,0-1.463-1.477H64.915L46.47,290.818a5.827,5.827,0,0,0,1.54-3.923,5.888,5.888,0,0,0-5.873-5.865Zm0,2.937A2.932,2.932,0,1,1,39.2,286.9,2.907,2.907,0,0,1,42.137,283.968Zm1.873,8.465L61.3,316.364H23l17.284-23.926a5.389,5.389,0,0,0,3.728-.006ZM3.973,319.3h15.8a1.464,1.464,0,0,0,.651,0H63.88a1.468,1.468,0,0,0,.625,0H80.32v41.109H3.973Zm29.351,5.862a1.468,1.468,0,0,0-1.018,2.515l7.769,7.774-7.769,7.768a1.468,1.468,0,1,0,2.071,2.082l7.771-7.774,7.769,7.774A1.472,1.472,0,1,0,52,343.223l-7.772-7.769L52,327.68a1.468,1.468,0,1,0-2.082-2.07l-7.769,7.769-7.772-7.769A1.468,1.468,0,0,0,33.324,325.165Zm-16.28,26.449a1.47,1.47,0,1,0,.141,2.937H67.109a1.468,1.468,0,1,0,0-2.937H17.184q-.07,0-.141,0Z" transform="translate(0 0)" fill="#7fcc30" stroke="#7fcc30" stroke-width="1"/>
    </g>
  </g>
</svg>
