<svg id="noun_edit_689196" xmlns="http://www.w3.org/2000/svg" width="16.482" height="15.87" viewBox="0 0 16.482 15.87">
  <path id="Path_324" data-name="Path 324" d="M32.71,33.152h0a.5.5,0,0,0-.095.142.329.329,0,0,0-.016.039.344.344,0,0,0-.017.04l-1.175,4.347a.5.5,0,0,0,.481.629.476.476,0,0,0,.129-.018L36.2,37.2a.478.478,0,0,0,.082.017.5.5,0,0,0,.353-.146l5.7-5.7-3.921-3.921-5.7,5.7Zm.608,1.314,1.954,1.954-2.678.724Zm5.728-4.434.7.7-3.128,3.128-.7-.7Z" transform="translate(-27.478 -25.842)" fill="#5d5959"/>
  <path id="Path_325" data-name="Path 325" d="M34.121,36.756V30.006H32.875v6.749a.791.791,0,0,1-.79.79H19.3V24.57H27.68V23.324H18.052V38.791H32.086A2.038,2.038,0,0,0,34.121,36.756Z" transform="translate(-18.052 -22.922)" fill="#5d5959"/>
  <path id="Path_326" data-name="Path 326" d="M62.02,26.415a1.91,1.91,0,0,0,0-2.7L60.8,22.494a1.956,1.956,0,0,0-2.7,0l-.367.366,3.921,3.921Z" transform="translate(-46.099 -21.953)" fill="#5d5959"/>
</svg>
