<svg xmlns="http://www.w3.org/2000/svg" width="11.242" height="11.226" viewBox="0 0 11.242 11.226">
  <path id="noun_filter_3933696" d="M61.753,15.953a.477.477,0,0,0-.471-.311h-10.2a.477.477,0,0,0-.47.311.46.46,0,0,0,.112.558l3.931,3.931v3.875a.49.49,0,0,0,.151.359l2.041,2.041a.474.474,0,0,0,.359.152.556.556,0,0,0,.2-.04.477.477,0,0,0,.311-.47V20.442l3.931-3.931A.46.46,0,0,0,61.753,15.953Z" transform="translate(-50.559 -15.642)" fill="#b4b4b4"/>
</svg>
