<svg xmlns="http://www.w3.org/2000/svg" width="18.959" height="18.959" viewBox="0 0 18.959 18.959">
  <g id="icon-search" transform="translate(0 0)">
    <path id="Path_330" data-name="Path 330" d="M23.8,21.26,16.979,15.6A6.652,6.652,0,1,0,15.6,16.979L21.26,23.8C21.945,24.584,24.584,21.945,23.8,21.26ZM7.793,15.479a5.435,5.435,0,1,1,7.687,0,5.435,5.435,0,0,1-7.687,0Z" transform="translate(-4.984 -4.984)" fill="#b4b4b4"/>
    <path id="Path_331" data-name="Path 331" d="M24.8,15.594a5.168,5.168,0,0,0-1.283-.56,5.223,5.223,0,0,0-5.106,1.331,5.079,5.079,0,0,0-.816,1.062.48.48,0,0,0,.833.477,4.118,4.118,0,0,1,.662-.861,4.261,4.261,0,0,1,4.167-1.086,4.206,4.206,0,0,1,1.045.456.48.48,0,1,0,.5-.819Z" transform="translate(-15.552 -11.77)" fill="#b4b4b4"/>
  </g>
</svg>
