<svg xmlns="http://www.w3.org/2000/svg" width="58.427" height="58.859" viewBox="0 0 58.427 58.859">
  <g id="icon1" transform="translate(1 1)">
    <g id="Group_324" data-name="Group 324" transform="translate(0 0)">
      <g id="Group_320" data-name="Group 320" transform="translate(0 0)">
        <path id="Path_294" data-name="Path 294" d="M2111.766,8626.853l-15.8-15.592-7.658,8.422-15.639-36.17,36.579,15.406-8.878,7.7,15.951,15.732Z" transform="translate(-2059.897 -8569.993)" fill="none" stroke="#313644" stroke-linecap="round" stroke-linejoin="round" stroke-width="2"/>
        <path id="Path_295" data-name="Path 295" d="M2073.737,8597.19a13.331,13.331,0,1,1,13.335-13.334" transform="translate(-2060.402 -8570.528)" fill="none" stroke="#313644" stroke-linecap="round" stroke-linejoin="round" stroke-width="2"/>
      </g>
    </g>
  </g>
</svg>