<svg xmlns="http://www.w3.org/2000/svg" width="49" height="49" viewBox="0 0 49 49">
  <g id="sales-icon" transform="translate(-760 -72)">
    <rect id="product_image" data-name="product image" width="49" height="49" rx="10" transform="translate(760 72)" fill="#8bd144"/>
    <g id="Group_1861" data-name="Group 1861" transform="translate(756 70.916)">
      <g id="Group_520" data-name="Group 520" transform="translate(-4137.304 -2677.85)">
        <path id="Path_368" data-name="Path 368" d="M4177.657,2692.148a.647.647,0,0,0-.469-.312l-22.083-3.016-.686-1.62c-.1-.249-.338-.266-.605-.266h-3.964c-.359,0-.545,0-.545.354v1.946c0,.359.16.649.519.649s.519-.29.519-.649v-1.263h3.029l.656,1.675c.006.01.008.013.014.023l4.719,12.278c.1.249.336.557.606.557h14.273c.268,0,.509-.313.605-.565l3.46-9.157A.816.816,0,0,0,4177.657,2692.148Z" fill="#fff"/>
        <path id="Path_369" data-name="Path 369" d="M4172.544,2717.755a2.884,2.884,0,1,0,2.882,2.883A2.886,2.886,0,0,0,4172.544,2717.755Z" transform="translate(-9.791 -14.824)" fill="#fff"/>
        <path id="Path_370" data-name="Path 370" d="M4186.989,2717.755a2.884,2.884,0,1,0,2.883,2.883A2.888,2.888,0,0,0,4186.989,2717.755Z" transform="translate(-16.738 -14.824)" fill="#fff"/>
      </g>
    </g>
    <path id="Path_8289" data-name="Path 8289" d="M4.19-5.324a.418.418,0,0,1-.115.137.255.255,0,0,1-.151.043.389.389,0,0,1-.2-.07q-.11-.07-.263-.155A2.168,2.168,0,0,0,3.1-5.524a1.5,1.5,0,0,0-.484-.07,1.444,1.444,0,0,0-.441.061.926.926,0,0,0-.317.169.674.674,0,0,0-.191.259.849.849,0,0,0-.063.331.575.575,0,0,0,.128.383,1.071,1.071,0,0,0,.34.261,3.153,3.153,0,0,0,.482.193q.27.086.554.182a5.213,5.213,0,0,1,.553.225,1.91,1.91,0,0,1,.481.324,1.468,1.468,0,0,1,.34.479,1.664,1.664,0,0,1,.128.688,2.243,2.243,0,0,1-.151.826,1.905,1.905,0,0,1-.441.671,2.077,2.077,0,0,1-.709.45,2.609,2.609,0,0,1-.959.164A3.091,3.091,0,0,1,1.737.011a3.222,3.222,0,0,1-.578-.173,3.1,3.1,0,0,1-.52-.27A2.506,2.506,0,0,1,.207-.783l.355-.58A.379.379,0,0,1,.68-1.469a.3.3,0,0,1,.153-.043.429.429,0,0,1,.243.092q.13.092.311.2a2.444,2.444,0,0,0,.421.2,1.618,1.618,0,0,0,.578.092,1.187,1.187,0,0,0,.8-.245.881.881,0,0,0,.283-.7.654.654,0,0,0-.128-.418A1.035,1.035,0,0,0,3-2.558a2.537,2.537,0,0,0-.482-.187q-.27-.076-.549-.166a4.734,4.734,0,0,1-.549-.216,1.779,1.779,0,0,1-.482-.328A1.5,1.5,0,0,1,.6-3.962a1.929,1.929,0,0,1-.128-.749A1.774,1.774,0,0,1,.614-5.4,1.789,1.789,0,0,1,1.026-6a2.017,2.017,0,0,1,.666-.418A2.446,2.446,0,0,1,2.6-6.579a3.035,3.035,0,0,1,1.062.18,2.4,2.4,0,0,1,.828.5ZM8.969-2.457,8.177-4.622q-.059-.144-.122-.342t-.126-.428q-.059.229-.122.43t-.122.349L6.9-2.457ZM11.106,0H10.17a.4.4,0,0,1-.257-.079.49.49,0,0,1-.149-.2L9.279-1.6h-2.7L6.1-.275a.431.431,0,0,1-.14.189A.389.389,0,0,1,5.7,0H4.756L7.317-6.507H8.55Zm4.486-1V0H11.781V-6.507h1.211V-1Zm2.079-4.545v1.8h2.277v.931H17.671V-.968H20.56V0h-4.1V-6.507h4.1v.963Zm7.425.22a.418.418,0,0,1-.115.137.255.255,0,0,1-.151.043.389.389,0,0,1-.2-.07q-.11-.07-.263-.155a2.168,2.168,0,0,0-.358-.155,1.5,1.5,0,0,0-.484-.07,1.444,1.444,0,0,0-.441.061.926.926,0,0,0-.317.169.674.674,0,0,0-.191.259.849.849,0,0,0-.063.331.575.575,0,0,0,.128.383,1.071,1.071,0,0,0,.34.261,3.153,3.153,0,0,0,.482.193q.27.086.553.182a5.213,5.213,0,0,1,.554.225,1.91,1.91,0,0,1,.481.324,1.468,1.468,0,0,1,.34.479,1.664,1.664,0,0,1,.128.688,2.243,2.243,0,0,1-.151.826,1.905,1.905,0,0,1-.441.671,2.077,2.077,0,0,1-.709.45,2.609,2.609,0,0,1-.958.164,3.091,3.091,0,0,1-.612-.061,3.222,3.222,0,0,1-.578-.173,3.1,3.1,0,0,1-.52-.27,2.506,2.506,0,0,1-.432-.351l.355-.58a.379.379,0,0,1,.117-.106.3.3,0,0,1,.153-.043.429.429,0,0,1,.243.092q.13.092.31.2a2.444,2.444,0,0,0,.421.2,1.618,1.618,0,0,0,.578.092,1.187,1.187,0,0,0,.8-.245.881.881,0,0,0,.283-.7.654.654,0,0,0-.128-.418,1.035,1.035,0,0,0-.34-.272,2.537,2.537,0,0,0-.482-.187q-.27-.076-.549-.166a4.734,4.734,0,0,1-.549-.216,1.779,1.779,0,0,1-.482-.328,1.5,1.5,0,0,1-.34-.506,1.929,1.929,0,0,1-.128-.749,1.774,1.774,0,0,1,.142-.693,1.789,1.789,0,0,1,.412-.6,2.017,2.017,0,0,1,.666-.418,2.446,2.446,0,0,1,.909-.157,3.035,3.035,0,0,1,1.062.18,2.4,2.4,0,0,1,.828.5Z" transform="translate(772 114)" fill="#fff"/>
  </g>
</svg>